Describing and visualizing data
…
## [1] 5.448483

median(cancer$Data_Value, na.rm = T)

## [1] 5.3

Ok, it’s not actually that simple (nothing ever is guys). If you have missing data, you need to figure out WHERE your data is missing and if possible WHY. Missing data, just like sampling strategies, can introduce bias into any analyses you conduct with your data. This is especially important when working with survey data where characteristics of respondents may create systematic variations in response rates for certain questions. For example, marginalized folks may not want to disclose information because it makes them more vulnerable. Let’s use dplyr to see where we have missing data:

cancer %>% filter(is.na(Data_Value)) %>% 
  group_by(CityName) %>% 
  summarize(n = n()) %>%
  arrange(desc(n))

## # A tibble: 277 x 2
##    CityName        n
##    <fctr>      <int>
##  1 Houston        50
##  2 New York       23
##  3 Kansas City    16
##  4 Dallas         15
##  5 San Antonio    15
##  6 Knoxville      14
##  7 Tucson         12
##  8 San Diego      10
##  9 Gastonia        9
## 10 Los Angeles     9
## # ... with 267 more rows
…
